\relax 
\providecommand\hyper@newdestlabel[2]{}
\catcode `"\active 
\catcode `-\active 
\catcode `^\active 
\catcode `'\active 
\providecommand\HyperFirstAtBeginDocument{\AtBeginDocument}
\HyperFirstAtBeginDocument{\ifx\hyper@anchor\@undefined
\global\let\oldcontentsline\contentsline
\gdef\contentsline#1#2#3#4{\oldcontentsline{#1}{#2}{#3}}
\global\let\oldnewlabel\newlabel
\gdef\newlabel#1#2{\newlabelxx{#1}#2}
\gdef\newlabelxx#1#2#3#4#5#6{\oldnewlabel{#1}{{#2}{#3}}}
\AtEndDocument{\ifx\hyper@anchor\@undefined
\let\contentsline\oldcontentsline
\let\newlabel\oldnewlabel
\fi}
\fi}
\global\let\hyper@last\relax 
\gdef\HyperFirstAtBeginDocument#1{#1}
\providecommand\HyField@AuxAddToFields[1]{}
\providecommand\HyField@AuxAddToCoFields[2]{}
\babel@aux{czech}{}
\citation{pocet_uzivatelu_S}
\@writefile{toc}{\contentsline {chapter}{\numberline {1}\IeC {\'U}vod}{3}{chapter.1}}
\@writefile{lof}{\addvspace {10\p@ }}
\@writefile{lot}{\addvspace {10\p@ }}
\citation{client-server_historie}
\@writefile{toc}{\contentsline {chapter}{\numberline {2}Technologie aplikac\IeC {\'\i } na platform\IeC {\v e} JavaScript}{4}{chapter.2}}
\@writefile{lof}{\addvspace {10\p@ }}
\@writefile{lot}{\addvspace {10\p@ }}
\newlabel{technologie}{{2}{4}{Technologie aplikací na platformě JavaScript}{chapter.2}{}}
\@writefile{toc}{\contentsline {section}{\numberline {2.1}Architektura klient-server na platform\IeC {\v e} JavaScript}{4}{section.2.1}}
\@writefile{toc}{\contentsline {subsection}{\numberline {2.1.1}Architektura klient-server}{4}{subsection.2.1.1}}
\citation{js_kniha}
\citation{node_boom}
\citation{podil_OS}
\@writefile{toc}{\contentsline {subsection}{\numberline {2.1.2}Jazyk JavaScript a jeho vyu\IeC {\v z}it\IeC {\'\i }}{6}{subsection.2.1.2}}
\@writefile{toc}{\contentsline {section}{\numberline {2.2}Mo\IeC {\v z}n\IeC {\'e} p\IeC {\v r}\IeC {\'\i }stupy v\IeC {\'y}voje mobiln\IeC {\'\i }ch aplikac\IeC {\'\i }}{7}{section.2.2}}
\@writefile{lof}{\contentsline {figure}{\numberline {2.1}{\ignorespaces V\IeC {\'y}voj pod\IeC {\'\i }lu platforem mobiln\IeC {\'\i }ch opera\IeC {\v c}n\IeC {\'\i }ch syst\IeC {\'e}m\IeC {\r u} na trhu}}{7}{figure.2.1}}
\newlabel{fig:smartphone-share}{{2.1}{7}{Vývoj podílu platforem mobilních operačních systémů na trhu}{figure.2.1}{}}
\@writefile{toc}{\contentsline {subsection}{\numberline {2.2.1}Nativn\IeC {\'\i } aplikace}{7}{subsection.2.2.1}}
\citation{web_app_princip}
\@writefile{toc}{\contentsline {subsection}{\numberline {2.2.2}Multiplatformn\IeC {\'\i } aplikace zalo\IeC {\v z}en\IeC {\'e} na webov\IeC {\'y}ch technologi\IeC {\'\i }ch}{8}{subsection.2.2.2}}
\citation{xamarin_app_princip}
\citation{JS_app_princip}
\@writefile{toc}{\contentsline {subsection}{\numberline {2.2.3}Multiplatformn\IeC {\'\i } aplikace p\IeC {\v r}ekl\IeC {\'a}dan\IeC {\'e} do nativn\IeC {\'\i }ho k\IeC {\'o}du}{9}{subsection.2.2.3}}
\@writefile{toc}{\contentsline {subsection}{\numberline {2.2.4}Multiplatformn\IeC {\'\i } aplikace interpretovan\IeC {\'e} za b\IeC {\v e}hu}{9}{subsection.2.2.4}}
\@writefile{toc}{\contentsline {section}{\numberline {2.3}Multiplatformn\IeC {\'\i } aplikace interpretovan\IeC {\'e} za b\IeC {\v e}hu v~JavaScriptu}{10}{section.2.3}}
\newlabel{JS_runtime}{{2.3}{10}{Multiplatformní aplikace interpretované za běhu v~JavaScriptu}{section.2.3}{}}
\@writefile{toc}{\contentsline {subsection}{\numberline {2.3.1}Princip funkcionality}{10}{subsection.2.3.1}}
\@writefile{toc}{\contentsline {subsection}{\numberline {2.3.2}Nativn\IeC {\'\i } a sd\IeC {\'\i }len\IeC {\'y} JavaScriptov\IeC {\'y} k\IeC {\'o}d}{10}{subsection.2.3.2}}
\@writefile{lof}{\contentsline {figure}{\numberline {2.2}{\ignorespaces Z\IeC {\'a}kladn\IeC {\'\i } architektura porovn\IeC {\'a}van\IeC {\'y}ch framework\IeC {\r u}}}{11}{figure.2.2}}
\newlabel{fig:frameworkyarchitektura}{{2.2}{11}{Základní architektura porovnávaných frameworků}{figure.2.2}{}}
\@writefile{toc}{\contentsline {subsection}{\numberline {2.3.3}P\IeC {\v r}\IeC {\'\i }stup k~nativn\IeC {\'\i }m funkc\IeC {\'\i }m}{11}{subsection.2.3.3}}
\citation{NS_book}
\@writefile{toc}{\contentsline {subsection}{\numberline {2.3.4}Vyu\IeC {\v z}it\IeC {\'\i } frameworku nad JavaScriptem}{12}{subsection.2.3.4}}
\@writefile{toc}{\contentsline {subsection}{\numberline {2.3.5}Open-source}{12}{subsection.2.3.5}}
\@writefile{toc}{\contentsline {section}{\numberline {2.4}NativeScript}{12}{section.2.4}}
\newlabel{NativeScript}{{2.4}{12}{NativeScript}{section.2.4}{}}
\@writefile{toc}{\contentsline {subsection}{\numberline {2.4.1}V\IeC {\'y}vojov\IeC {\'e} mo\IeC {\v z}nosti}{12}{subsection.2.4.1}}
\@writefile{toc}{\contentsline {subsection}{\numberline {2.4.2}Stylovan\IeC {\'\i } a animace}{13}{subsection.2.4.2}}
\@writefile{toc}{\contentsline {subsection}{\numberline {2.4.3}Popularita a velikost komunity}{13}{subsection.2.4.3}}
\newlabel{NS_popularita}{{2.4.3}{13}{Popularita a velikost komunity}{subsection.2.4.3}{}}
\@writefile{toc}{\contentsline {section}{\numberline {2.5}React Native}{14}{section.2.5}}
\citation{RN_git}
\citation{RN_stack}
\citation{RN_npm}
\@writefile{toc}{\contentsline {subsection}{\numberline {2.5.1}V\IeC {\'y}vojov\IeC {\'e} mo\IeC {\v z}nosti}{15}{subsection.2.5.1}}
\@writefile{toc}{\contentsline {subsection}{\numberline {2.5.2}Stylovan\IeC {\'\i } a animace}{15}{subsection.2.5.2}}
\@writefile{toc}{\contentsline {subsection}{\numberline {2.5.3}Popularita a velikost komunity}{15}{subsection.2.5.3}}
\@writefile{toc}{\contentsline {section}{\numberline {2.6}Srovn\IeC {\'a}n\IeC {\'\i } NativeScript vs React Native}{16}{section.2.6}}
\@writefile{toc}{\contentsline {section}{\numberline {2.7}Popis zvolen\IeC {\'y}ch technologi\IeC {\'\i }}{17}{section.2.7}}
\@writefile{toc}{\contentsline {subsection}{\numberline {2.7.1}NativeScript}{17}{subsection.2.7.1}}
\@writefile{toc}{\contentsline {subsection}{\numberline {2.7.2}EcmaScript 2015 (ES6)}{17}{subsection.2.7.2}}
\newlabel{es6}{{2.7.2}{17}{EcmaScript 2015 (ES6)}{subsection.2.7.2}{}}
\@writefile{toc}{\contentsline {subsubsection}{Nahrazen\IeC {\'\i } var za let a const}{17}{section*.16}}
\@writefile{toc}{\contentsline {subsubsection}{Snadn\IeC {\v e}j\IeC {\v s}\IeC {\'\i } definice funkc\IeC {\'\i }}{17}{section*.17}}
\@writefile{toc}{\contentsline {subsubsection}{Promise nam\IeC {\'\i }sto callback}{17}{section*.18}}
\citation{classes_book}
\newlabel{promise_code}{{2.1}{18}{Ukázka práce s~asynchronními funkcemi pomocí Promise a také využití \textit {arrow funkcí}}{lstlisting.2.1}{}}
\@writefile{lol}{\contentsline {lstlisting}{\numberline {2.1}Uk\IeC {\'a}zka pr\IeC {\'a}ce s~asynchronn\IeC {\'\i }mi funkcemi pomoc\IeC {\'\i } Promise a tak\IeC {\'e} vyu\IeC {\v z}it\IeC {\'\i } \textit  {arrow funkc\IeC {\'\i }}}{18}{lstlisting.2.1}}
\@writefile{toc}{\contentsline {subsubsection}{Nov\IeC {\'a} definice t\IeC {\v r}\IeC {\'\i }d}{18}{section*.19}}
\@writefile{toc}{\contentsline {subsubsection}{Dal\IeC {\v s}\IeC {\'\i } zaj\IeC {\'\i }mav\IeC {\'e} funkce}{18}{section*.20}}
\@writefile{toc}{\contentsline {subsection}{\numberline {2.7.3}CSS pre-procesor SASS pro NativeScript}{18}{subsection.2.7.3}}
\@writefile{toc}{\contentsline {subsubsection}{CSS pre-procesor}{18}{section*.21}}
\citation{node_kniha}
\@writefile{toc}{\contentsline {subsubsection}{Pre-procesor SASS}{19}{section*.22}}
\@writefile{toc}{\contentsline {subsubsection}{SASS pro NativeScript}{19}{section*.23}}
\@writefile{toc}{\contentsline {subsection}{\numberline {2.7.4}Node.js a serverov\IeC {\'e} technologie}{19}{subsection.2.7.4}}
\@writefile{toc}{\contentsline {subsubsection}{Node.js}{19}{section*.24}}
\citation{npm_boom}
\@writefile{toc}{\contentsline {subsubsection}{Npm}{20}{section*.25}}
\@writefile{toc}{\contentsline {subsubsection}{Express.js}{20}{section*.26}}
\@writefile{toc}{\contentsline {subsection}{\numberline {2.7.5}Datab\IeC {\'a}zov\IeC {\'e} technologie}{21}{subsection.2.7.5}}
\@writefile{toc}{\contentsline {subsubsection}{Knex.js}{21}{section*.27}}
\@writefile{toc}{\contentsline {subsubsection}{Datab\IeC {\'a}ze Sqlite3}{21}{section*.28}}
\@writefile{toc}{\contentsline {chapter}{\numberline {3}N\IeC {\'a}vrh aplikace}{23}{chapter.3}}
\@writefile{lof}{\addvspace {10\p@ }}
\@writefile{lot}{\addvspace {10\p@ }}
\newlabel{design}{{3}{23}{Návrh aplikace}{chapter.3}{}}
\@writefile{toc}{\contentsline {section}{\numberline {3.1}Zad\IeC {\'a}n\IeC {\'\i } aplikace}{23}{section.3.1}}
\@writefile{toc}{\contentsline {subsection}{\numberline {3.1.1}Typ a objekt prost\IeC {\v r}edku}{23}{subsection.3.1.1}}
\@writefile{toc}{\contentsline {subsection}{\numberline {3.1.2}Akce}{24}{subsection.3.1.2}}
\@writefile{toc}{\contentsline {subsection}{\numberline {3.1.3}Vyhled\IeC {\'a}v\IeC {\'a}n\IeC {\'\i } voln\IeC {\'y}ch prost\IeC {\v r}edk\IeC {\r u}}{24}{subsection.3.1.3}}
\@writefile{toc}{\contentsline {subsection}{\numberline {3.1.4}Rezervace}{24}{subsection.3.1.4}}
\@writefile{toc}{\contentsline {subsection}{\numberline {3.1.5}Opakov\IeC {\'a}n\IeC {\'\i }}{24}{subsection.3.1.5}}
\@writefile{toc}{\contentsline {subsection}{\numberline {3.1.6}Zobrazen\IeC {\'\i } rezervac\IeC {\'\i }}{24}{subsection.3.1.6}}
\@writefile{toc}{\contentsline {section}{\numberline {3.2}Podobn\IeC {\'e} aplikace}{25}{section.3.2}}
\@writefile{toc}{\contentsline {subsection}{\numberline {3.2.1}My Time}{25}{subsection.3.2.1}}
\@writefile{toc}{\contentsline {subsection}{\numberline {3.2.2}Hub Spot}{25}{subsection.3.2.2}}
\@writefile{toc}{\contentsline {subsection}{\numberline {3.2.3}Google kalend\IeC {\'a}\IeC {\v r}}{25}{subsection.3.2.3}}
\@writefile{toc}{\contentsline {section}{\numberline {3.3}Serverov\IeC {\'a} \IeC {\v c}\IeC {\'a}st}{26}{section.3.3}}
\@writefile{toc}{\contentsline {subsection}{\numberline {3.3.1}Datab\IeC {\'a}zov\IeC {\'y} model}{26}{subsection.3.3.1}}
\@writefile{lof}{\contentsline {figure}{\numberline {3.1}{\ignorespaces ERD diagram navrhnut\IeC {\'e} rela\IeC {\v c}n\IeC {\'\i } datab\IeC {\'a}ze}}{26}{figure.3.1}}
\newlabel{fig:database}{{3.1}{26}{ERD diagram navrhnuté relační databáze}{figure.3.1}{}}
\@writefile{toc}{\contentsline {subsection}{\numberline {3.3.2}N\IeC {\'a}vrh aplika\IeC {\v c}n\IeC {\'\i }ho rozhran\IeC {\'\i }}{27}{subsection.3.3.2}}
\@writefile{toc}{\contentsline {section}{\numberline {3.4}Klientsk\IeC {\'a} \IeC {\v c}\IeC {\'a}st}{27}{section.3.4}}
\@writefile{toc}{\contentsline {subsection}{\numberline {3.4.1}N\IeC {\'a}vrh pr\IeC {\'a}ce s~daty -- MVVM}{27}{subsection.3.4.1}}
\@writefile{toc}{\contentsline {subsection}{\numberline {3.4.2}N\IeC {\'a}vrh grafick\IeC {\'e}ho u\IeC {\v z}ivatelsk\IeC {\'e}ho rozhran\IeC {\'\i }}{28}{subsection.3.4.2}}
\@writefile{toc}{\contentsline {subsubsection}{Nov\IeC {\'a} rezervace}{28}{section*.29}}
\@writefile{toc}{\contentsline {subsubsection}{M\IeC {\r u}j kalend\IeC {\'a}\IeC {\v r}}{28}{section*.30}}
\@writefile{toc}{\contentsline {subsubsection}{Kalend\IeC {\'a}\IeC {\v r} objektu}{28}{section*.31}}
\@writefile{toc}{\contentsline {subsubsection}{Potvrzen\IeC {\'\i } rezervac\IeC {\'\i }}{29}{section*.32}}
\@writefile{toc}{\contentsline {chapter}{\numberline {4}Implementace \IeC {\v r}e\IeC {\v s}en\IeC {\'\i }}{30}{chapter.4}}
\@writefile{lof}{\addvspace {10\p@ }}
\@writefile{lot}{\addvspace {10\p@ }}
\newlabel{implementace}{{4}{30}{Implementace řešení}{chapter.4}{}}
\@writefile{toc}{\contentsline {section}{\numberline {4.1}Server}{30}{section.4.1}}
\@writefile{toc}{\contentsline {subsection}{\numberline {4.1.1}Autentizace a sezen\IeC {\'\i }}{30}{subsection.4.1.1}}
\@writefile{toc}{\contentsline {subsubsection}{Ukl\IeC {\'a}d\IeC {\'a}n\IeC {\'\i } hesel}{30}{section*.33}}
\@writefile{toc}{\contentsline {subsubsection}{Proces p\IeC {\v r}ihl\IeC {\'a}\IeC {\v s}en\IeC {\'\i }}{31}{section*.34}}
\@writefile{toc}{\contentsline {subsubsection}{Sezen\IeC {\'\i }}{31}{section*.35}}
\@writefile{toc}{\contentsline {subsection}{\numberline {4.1.2}Vyhled\IeC {\'a}v\IeC {\'a}n\IeC {\'\i } voln\IeC {\'y}ch prost\IeC {\v r}edk\IeC {\r u}}{31}{subsection.4.1.2}}
\@writefile{toc}{\contentsline {subsection}{\numberline {4.1.3}Opakov\IeC {\'a}n\IeC {\'\i } rezervace}{32}{subsection.4.1.3}}
\@writefile{toc}{\contentsline {subsubsection}{Pl\IeC {\'a}nov\IeC {\'a}n\IeC {\'\i } podle CRON form\IeC {\'a}tu}{33}{section*.36}}
\@writefile{lof}{\contentsline {figure}{\numberline {4.1}{\ignorespaces Popis z\IeC {\'a}pisu ve tvaru CRON}}{33}{figure.4.1}}
\newlabel{fig:cron}{{4.1}{33}{Popis zápisu ve tvaru CRON}{figure.4.1}{}}
\@writefile{toc}{\contentsline {subsubsection}{Generov\IeC {\'a}n\IeC {\'\i } term\IeC {\'\i }n\IeC {\r u} na z\IeC {\'a}klad\IeC {\v e} CRON form\IeC {\'a}tu}{33}{section*.37}}
\@writefile{toc}{\contentsline {subsubsection}{Omezen\IeC {\'\i } CRON form\IeC {\'a}tu a jeho \IeC {\v r}e\IeC {\v s}en\IeC {\'\i }}{34}{section*.38}}
\newlabel{cron_omezeni}{{4.1.3}{34}{Omezení CRON formátu a jeho řešení}{section*.38}{}}
\@writefile{toc}{\contentsline {subsection}{\numberline {4.1.4}Upozorn\IeC {\v e}n\IeC {\'\i } prost\IeC {\v r}ednictv\IeC {\'\i }m e-mailu}{34}{subsection.4.1.4}}
\@writefile{toc}{\contentsline {subsubsection}{Odes\IeC {\'\i }l\IeC {\'a}n\IeC {\'\i } email\IeC {\r u}}{34}{section*.39}}
\@writefile{toc}{\contentsline {subsubsection}{Pl\IeC {\'a}nov\IeC {\'a}n\IeC {\'\i } \IeC {\'u}loh}{34}{section*.40}}
\@writefile{toc}{\contentsline {section}{\numberline {4.2}Klient}{35}{section.4.2}}
\@writefile{toc}{\contentsline {subsection}{\numberline {4.2.1}Uk\IeC {\'a}zkov\IeC {\'e} aplikace}{35}{subsection.4.2.1}}
\@writefile{lof}{\contentsline {figure}{\numberline {4.2}{\ignorespaces Uk\IeC {\'a}zka vysouvac\IeC {\'\i }ho menu na platform\IeC {\'a}ch Android a iOS}}{36}{figure.4.2}}
\newlabel{fig:menu}{{4.2}{36}{Ukázka vysouvacího menu na platformách Android a iOS}{figure.4.2}{}}
\@writefile{toc}{\contentsline {subsection}{\numberline {4.2.2}Nativn\IeC {\'\i } komponenty}{36}{subsection.4.2.2}}
\@writefile{lof}{\contentsline {figure}{\numberline {4.3}{\ignorespaces Uk\IeC {\'a}zka rozd\IeC {\'\i }ln\IeC {\'e}ho Action Baru a odli\IeC {\v s}n\IeC {\'e}ho p\IeC {\v r}\IeC {\'\i }stupu k~zad\IeC {\'a}v\IeC {\'a}n\IeC {\'\i } \IeC {\v c}asu platforem Android a iOS}}{37}{figure.4.3}}
\newlabel{fig:timepicker}{{4.3}{37}{Ukázka rozdílného Action Baru a odlišného přístupu k~zadávání času platforem Android a iOS}{figure.4.3}{}}
\@writefile{toc}{\contentsline {subsection}{\numberline {4.2.3}Kalend\IeC {\'a}\IeC {\v r}}{37}{subsection.4.2.3}}
\@writefile{lof}{\contentsline {figure}{\numberline {4.4}{\ignorespaces Uk\IeC {\'a}zka kalend\IeC {\'a}\IeC {\v r}e v~t\IeC {\'y}denn\IeC {\'\i }m re\IeC {\v z}imu na obou platform\IeC {\'a}ch}}{38}{figure.4.4}}
\newlabel{fig:kalendar}{{4.4}{38}{Ukázka kalendáře v~týdenním režimu na obou platformách}{figure.4.4}{}}
\@writefile{toc}{\contentsline {subsection}{\numberline {4.2.4}Intuitivn\IeC {\'\i } vyhled\IeC {\'a}v\IeC {\'a}n\IeC {\'\i } osob}{39}{subsection.4.2.4}}
\@writefile{lof}{\contentsline {figure}{\numberline {4.5}{\ignorespaces Uk\IeC {\'a}zka intuitivn\IeC {\'\i }ho vyhled\IeC {\'a}v\IeC {\'a}n\IeC {\'\i } osob}}{39}{figure.4.5}}
\newlabel{fig:vyhledavani}{{4.5}{39}{Ukázka intuitivního vyhledávání osob}{figure.4.5}{}}
\@writefile{toc}{\contentsline {subsection}{\numberline {4.2.5}Nedostatky technologie NativeScript}{40}{subsection.4.2.5}}
\@writefile{toc}{\contentsline {chapter}{\numberline {5}Testov\IeC {\'a}n\IeC {\'\i }}{41}{chapter.5}}
\@writefile{lof}{\addvspace {10\p@ }}
\@writefile{lot}{\addvspace {10\p@ }}
\newlabel{testovani}{{5}{41}{Testování}{chapter.5}{}}
\@writefile{toc}{\contentsline {section}{\numberline {5.1}Serverov\IeC {\'e} testov\IeC {\'a}n\IeC {\'\i }}{41}{section.5.1}}
\@writefile{toc}{\contentsline {section}{\numberline {5.2}Klientsk\IeC {\'e} testov\IeC {\'a}n\IeC {\'\i }}{41}{section.5.2}}
\@writefile{toc}{\contentsline {section}{\numberline {5.3}U\IeC {\v z}ivatelsk\IeC {\'e} testov\IeC {\'a}n\IeC {\'\i }}{42}{section.5.3}}
\@writefile{toc}{\contentsline {chapter}{\numberline {6}Z\IeC {\'a}v\IeC {\v e}r}{43}{chapter.6}}
\@writefile{lof}{\addvspace {10\p@ }}
\@writefile{lot}{\addvspace {10\p@ }}
\newlabel{zaver}{{6}{43}{Závěr}{chapter.6}{}}
\bibstyle{bib-styles/czechiso}
\bibdata{projekt-20-literatura-bibliography}
\@writefile{toc}{\contentsline {section}{\numberline {6.1}Roz\IeC {\v s}\IeC {\'\i }\IeC {\v r}en\IeC {\'\i } pr\IeC {\'a}ce}{44}{section.6.1}}
\bibcite{NS_book}{1}
\bibcite{npm_boom}{2}
\bibcite{podil_OS}{3}
\bibcite{xamarin_app_princip}{4}
\bibcite{web_app_princip}{5}
\bibcite{node_kniha}{6}
\bibcite{classes_book}{7}
\bibcite{JS_app_princip}{8}
\bibcite{node_boom}{9}
\bibcite{pocet_uzivatelu_S}{10}
\bibcite{client-server_historie}{11}
\bibcite{js_kniha}{12}
\@writefile{toc}{\contentsline {chapter}{Literatura}{45}{chapter*.41}}
\ttl@writefile{ptc}{\ttl@starttoc{chapters@1}}
\@writefile{toc}{\contentsline {chapter}{\numberline {A}Obsah DVD}{46}{appendix.A}}
\@writefile{lof}{\addvspace {10\p@ }}
\@writefile{lot}{\addvspace {10\p@ }}
\ttl@finishall
